{
    "artists": {
      "href": "https://api.spotify.com/v1/search?query=remaster%2520track%3ADoxy%2520artist%3AMiles%2520Davis&type=artist&offset=0&limit=20",
      "items": [
        {
          "external_urls": {
            "spotify": "https://open.spotify.com/artist/0kbYTNQb4Pb1rPbbaF0pT4"
          },
          "followers": {
            "href": null,
            "total": 2526895
          },
          "genres": [
            "cool jazz",
            "hard bop",
            "jazz",
            "jazz fusion",
            "jazz trumpet",
            "soul",
            "vocal jazz"
          ],
          "href": "https://api.spotify.com/v1/artists/0kbYTNQb4Pb1rPbbaF0pT4",
          "id": "0kbYTNQb4Pb1rPbbaF0pT4",
          "images": [
            {
              "height": 1000,
              "url": "https://i.scdn.co/image/423e826b3c1b23930a255d7cbc2daf733f795507",
              "width": 1000
            },
            {
              "height": 640,
              "url": "https://i.scdn.co/image/a318c54208af38364d131a54ced2416423696018",
              "width": 640
            },
            {
              "height": 200,
              "url": "https://i.scdn.co/image/8496e6ea230dd47311d85dcf860015792f5ada42",
              "width": 200
            },
            {
              "height": 64,
              "url": "https://i.scdn.co/image/b1af952a7fb8ac2c4467868d61b5752fc1a01cf0",
              "width": 64
            }
          ],
          "name": "Miles Davis",
          "popularity": 60,
          "type": "artist",
          "uri": "spotify:artist:0kbYTNQb4Pb1rPbbaF0pT4"
        }
      ],
      "limit": 20,
      "next": "https://api.spotify.com/v1/search?query=remaster%2520track%3ADoxy%2520artist%3AMiles%2520Davis&type=artist&offset=20&limit=20",
      "offset": 0,
      "previous": null,
      "total": 800
    }
  }